R语言学习笔记 | Bramber
…
1
2
3
4
5
6
7
8
9
10
11

heights %>% group_by(sex)
#> # A tibble: 1,050 x 2
#> # Groups:   sex [2]
#>   sex   height
#>   <fct>  <dbl>
#> 1 Male      75
#> 2 Male      70
#> 3 Male      68
#> 4 Male      74
#> 5 Male      61
#> # … with 1,045 more rows
…
1
2
3
4
5
6
7
8
9
10
11

murders %>% group_by(region)
#> # A tibble: 51 x 6
#> # Groups:   region [4]
#>   state      abb   region population total  rate
#>   <chr>      <chr> <fct>       <dbl> <dbl> <dbl>
#> 1 Alabama    AL    South     4779736   135  2.82
#> 2 Alaska     AK    West       710231    19  2.68
#> 3 Arizona    AZ    West      6392017   232  3.63
#> 4 Arkansas   AR    South     2915918    93  3.19
#> 5 California CA    West     37253956  1257  3.37
#> # … with 46 more rows
…
